[
    {
        "children": [
            {
                "children": [
                    {
                        "children": [],
                        "identifier": "patches_model:317-cd6b7fca-805e-4474-8ab4-a815b6ac2b9a",
                        "modelName": "patches_model"
                    },
                    {
                        "children": [],
                        "identifier": "connections_model:319-cd6b7fca-805e-4474-8ab4-a815b6ac2b9a",
                        "modelName": "connections_model"
                    },
                    {
                        "identifier": "patch_input_ports_model:321-cd6b7fca-805e-4474-8ab4-a815b6ac2b9a",
                        "modelName": "patch_input_ports_model"
                    },
                    {
                        "identifier": "patch_output_ports_model:323-cd6b7fca-805e-4474-8ab4-a815b6ac2b9a",
                        "modelName": "patch_output_ports_model"
                    },
                    {
                        "hidden": false,
                        "identifier": "patch_metadata_model:325-cd6b7fca-805e-4474-8ab4-a815b6ac2b9a",
                        "internalGroup": false,
                        "modelName": "patch_metadata_model",
                        "position": [
                            0,
                            0
                        ],
                        "preferredGenericType": 0
                    }
                ],
                "identifier": "patch_model:315-cd6b7fca-805e-4474-8ab4-a815b6ac2b9a",
                "modelName": "patch_model",
                "name": "kRootPatchName"
            }
        ],
        "identifier": "patch_graph_model:312-cd6b7fca-805e-4474-8ab4-a815b6ac2b9a",
        "modelName": "patch_graph_model",
        "valuesMap": {
            "port_model:1913-cd6b7fca-805e-4474-8ab4-a815b6ac2b9a": {
                "type": 0,
                "value": 15
            },
            "port_model:2670-cd6b7fca-805e-4474-8ab4-a815b6ac2b9a": {
                "type": 0,
                "value": 0.9
            },
            "port_model:2684-cd6b7fca-805e-4474-8ab4-a815b6ac2b9a": {
                "type": 0,
                "value": 1.4
            }
        }
    }
]